module github.com/PrincessMortix/BSI

go 1.17

require github.com/ncruces/zenity v0.7.12

require (
	github.com/akavel/rsrc v0.10.2 // indirect
	github.com/dchest/jsmin v0.0.0-20160823214000-faeced883947 // indirect
	github.com/josephspurrier/goversioninfo v1.3.0 // indirect
	github.com/randall77/makefat v0.0.0-20210315173500-7ddd0e42c844 // indirect
	golang.org/x/image v0.0.0-20210628002857-a66eb6448b8d // indirect
	golang.org/x/sys v0.0.0-20210909193231-528a39cd75f3 // indirect
)
